%YAML 1.1
%TAG !u! tag:unity3d.com,2011:
--- !u!114 &11400000
MonoBehaviour:
  m_ObjectHideFlags: 0
  m_CorrespondingSourceObject: {fileID: 0}
  m_PrefabInstance: {fileID: 0}
  m_PrefabAsset: {fileID: 0}
  m_GameObject: {fileID: 0}
  m_Enabled: 1
  m_EditorHideFlags: 0
  m_Script: {fileID: 11500000, guid: 1dfba834f593253498898cd006d5f2f6, type: 3}
  m_Name: OptionsResponse2
  m_EditorClassIdentifier: 
  messageDelayInSeconds: 1
  messagesToPlay:
  - That's too bad :(
  - Please let me know what you would like to see improved!
  extraDelayBeforeNextMessages: 1
  nextMessage: {fileID: 11400000, guid: 21ac321947289be46aea59d1cf0a8b76, type: 2}
